{
  "project_info": {
    "project_number": "1066642989026",
    "firebase_url": "https://tracking-3738e-default-rtdb.firebaseio.com",
    "project_id": "tracking-3738e",
    "storage_bucket": "tracking-3738e.appspot.com"
  },
  "client": [
    {
      "client_info": {
        "mobilesdk_app_id": "1:1066642989026:android:85341f3657281ff991e3bb",
        "android_client_info": {
          "package_name": "com.example.apptrackinglcr"
        }
      },
      "oauth_client": [
        {
          "client_id": "1066642989026-2ls7k00n4t6j9lvvmo0vpkgo372c9u95.apps.googleusercontent.com",
          "client_type": 3
        }
      ],
      "api_key": [
        {
          "current_key": "AIzaSyBxFVQB469_0L7LeBYUaUWdwkJvcvsSZ_Q"
        }
      ],
      "services": {
        "appinvite_service": {
          "other_platform_oauth_client": [
            {
              "client_id": "1066642989026-2ls7k00n4t6j9lvvmo0vpkgo372c9u95.apps.googleusercontent.com",
              "client_type": 3
            }
          ]
        }
      }
    },
    {
      "client_info": {
        "mobilesdk_app_id": "1:1066642989026:android:8fdc19d567435f8391e3bb",
        "android_client_info": {
          "package_name": "com.google.android.gms.location.sample.locationupdatesforegroundservice"
        }
      },
      "oauth_client": [
        {
          "client_id": "1066642989026-jmv56a8d1n29ghi0kor03dbglu0q14v6.apps.googleusercontent.com",
          "client_type": 1,
          "android_info": {
            "package_name": "com.google.android.gms.location.sample.locationupdatesforegroundservice",
            "certificate_hash": "f80910d102fddab04c543baa5b1c0b9f6892422f"
          }
        },
        {
          "client_id": "1066642989026-2ls7k00n4t6j9lvvmo0vpkgo372c9u95.apps.googleusercontent.com",
          "client_type": 3
        }
      ],
      "api_key": [
        {
          "current_key": "AIzaSyBxFVQB469_0L7LeBYUaUWdwkJvcvsSZ_Q"
        }
      ],
      "services": {
        "appinvite_service": {
          "other_platform_oauth_client": [
            {
              "client_id": "1066642989026-2ls7k00n4t6j9lvvmo0vpkgo372c9u95.apps.googleusercontent.com",
              "client_type": 3
            }
          ]
        }
      }
    }
  ],
  "configuration_version": "1"
}